{
  "environment": "dev",
  "dbg_environment": "dev",
  "exchange": "okexfut",
  "addr": ":3000",
  "mq_endpoint": "b-86fb1f24-0d57-41bf-a729-cd38aca7cdd4-1.mq.eu-west-1.amazonaws.com:61614",
  "topic_action": "/topic/luigi.okexfut.dev0.action",
  "topic_execution_report": "/topic/luigi.okexfut.dev0.report.execution",
  "topic_action_report": "/topic/luigi.okexfut.dev0.report.action",
  "mq_heartbeat": 10,
  "parallel": false
}
